1411170004144500000010339000000
1411170005121500000010399000000
1411170021250000000012359000000
1411170001000000000014039000000
1411170001030000014290072000000
1411170001291000014300062000000
1411170005800000015240042000000

