1602150086029000001410062050000
1602150024608000007930033050000
1602150002636000015310132000000
1602150002626000015310142000000
1602150002616000015310152000000
1602150005278000000017899000000
1602150096077500010240013050000
