1806220008340500016390211000000
1806220008373500016390201000000
1806220008406500016390191000000
1806220015941500016530012000000
1806220012670000016500082000000
1806220013469500016570273000000
1806220009952500017530062000000
