1808150009501000017590072000000
1808150004228500017570022000000
1808150258975000017640193000000
1808150008388000017630022000000
1808150006547000017650032000000
1808150018525000017510062000000
1808150007946500017990022000000
1808150014009000018270022000000
1808150014038000017950032000000
1808150020634000016920183000000
