1801120006578000010100032040000
1801120005380000016650191000000
1801120005401000016650181000000
1801120005422500016650171000000
1801120005443500016650161000000
1801120005464500016650151000000
1801120005485500016650141000000
1801120005507000016650131000000
