1612120025446500009910422000000
1612120003358500000020269000000
1612120003358500000020279000000
1612120003358500000020289000000
1612120200000000000022409000000
1612120023400000000020919000000
1612120039900000016570002140000
1612120023460000000022499000000
