1607110015000000016210012050000
1607110050000000000020999000000
1607110002575500015310192000000
1607110002565000015310202000000
1607110002555000015310212000000
1607110002545000015310222000000
1607110001000000000021169000000
