1905090091854500001010102050000
1905090006107000016320152000000
1905090085069500017400103000000
1905090013532500018570153000000
1905090048617500017330053000000
1905090048925000017330073020000
1905090009293000017930132000000
