1703130002837000000019479000000
1703130099612000016850002050000
1703130080794000015280032050000
1703130213519000001100093050000
1703130025619000001340023190000
1703130185254500010890053050000
1703130042775000012290003100000
1703130103094000001400003540000
1703130013391500015340022040000
1703130015427500015340012020000
