1512160001130500014330082000000
1512160009210000016030002070000
1512160002025000000017989000000
1512160001023500000018159000000
1512160001023500000018169000000
1512160000879500000018179000000
1512160001187000014300142000000
1512160000959500014290102000000
1512160004733000015550092000000
