1809120009578000017930052000000
1809120004237500017570032000000
1809120009499000017590082000000
1809120008185500017630042000000
1809120007322000014330253020000
1809120002544000016030102000000
1809120001740500014300292000000
1809120007553000017490042000000
