1903130074701500006730062200000
1903130019511000017030023000000
1903130022585000017540112000000
1903130048602500017540093000000
1903130011091000017650103000000
1903130020019000017750053000000
1903130010315000017630032000000
1903130011721500017590092000000
1903130002819500017670112000000
