1807180045666600000023619000000
1807180142535000015280053050000
1807180021562500016920153000000
1807180007991000017990012000000
1807180014144000018270012000000
1807180002563500016030082000000
1807180006572500016030072040000
1807180009596000017490022020000
1807180005643000014330193000000
1807180007810000014330163020000
1807180001738500014300262000000
