1810190020094000016920243000000
1810190013738500018270042000000
1810190009542500017930062000000
1810190006173500017420112000000
1810190009697000016640042000000
1810190008240000016600211000000
1810190017141500018530012000000
1810190013141000016570333000000
1810190028568500016560043000000
1810190008537500017460172020000
1810190024853500016910062000000
