1603150096010000011740013050000
1603150005123000007880042050000
1603150003000000000018889000000
1603150008550000014100022010000
1603150010567000014150012010000
1603150014524500000530012050000
1603150035200000000740063050000
1603150096842000000540073050000
1603150006252000000019079000000
1603150948245500008830042050000
