1806180092000000018070002670000
1806180107000000018200002770000
1806180055490000016700182000000
1806180010628500016370141000000
1806180090830000018210002662200
1806180001127000013820211000000
1806180001136000013820191000000
1806180003122500013820221020000
1806180088467500018170002646450
1806180016473000016470201000000
1806180016541000016470191000000
