1810180012440500016500132000000
1810180011500500017520052000000
1810180029577000017810072000000
1810180008307500016390221000000
1810180008274500016390231000000
1810180010241500016390242020000
1810180004212000017570042000000
1810180006476500017650052000000
1810180010465000016370181000000
1810180007895500017990042000000
1810180007865000018280012000000
