1012090012504500000290132004000
1012090001191000002230032000000
1012090034863000003360012003000
1012090002661500004180032003000
1012090007980500004420132000000
1012090007980500004420142000000
1012090007984000004420152000000
1012090049780000006530052004000
1012090006931500006760132000000
