1002150001640500001170032003000
1002150001060000002090002007000
1002150000343000002120132000000
1002150000343000002120142000000
1002150000343000002120152000000
1002150001632500002380022003000
1002150001028500002400002007000
1002150001466500002470012003000
1002150002746500003930022000000
1002150004728000004550013000000
1002150002244000004610012003000
1002150001000000004920172000000
1002150001000000004920182000000
1002150002422500006170012003000
1002150002096000006570022003000
