1102110001427000001730002007000
1102110003166000001920013003000
1102110007551000004860162000000
1102110249714000006750002011000
1102110006931500006760152000000
1102110006931500006760162000000
1102110006931500006760172000000
