1502200003375000000011519000000
1502200004879500000011869000000
1502200005413000000014329000000
1502200005413000000014339000000
1502200005413000000014349000000
1502200004869500015550012000000
1502200004733000015550032000000
