1303120001760000000002899000000
1303120006054000000003169000000
1303120046845000000590052050000
1303120020119500000610052050000
1303120001829500004890302000000
1303120008017500009500112000000
1303120028584000009910092000000
