1301210000995500003840022000000
1301210000836500003840032000000
1301210000819000003850022000000
1301210000688000003850032000000
1301210000893500004540002000000
1301210000736000004880153000000
1301210000731500004880173000000
