1408080001097500000010509000000
1408080011600000000010569000000
1408080002438000000011599000000
1408080002403000003660352000000
1408080007651000009500232000000
1408080002912500013320242000000
1408080002900500013320252000000
