1112190001505000001880032003000
1112190000955000002010032003000
1112190001250000002090022003000
1112190000995000002250022003000
1112190000772500002400032003000
1112190001363500002470032003000
1112190022010500007740012003000
