1012100005352000000050232004000
1012100018258500000670032004000
1012100013518000001900133000000
1012100002470000003660032000000
1012100000976500003690092000000
1012100033723500006740042004000
1012100002059500007390052000000
