1003150005521000002700002200000
1003150001256000003190042000000
1003150000484000005250022000000
1003150000458000005520072000000
1003150000495000005550072000000
1003150000241000005650202000000
1003150000547500005840022000000
