1209040000080000000001989000000
1209040001830500004890242000000
1209040001598500005340182000000
1209040006931500006760292000000
1209040006931500006760302000000
1209040002200000011400012007000
1209040002950000011410012007000
1209040056477000011460012004000
