1306110002700000000003439000000
1306110010000000000003929000000
1306110002250000000003939000000
1306110001840000000004679000000
1306110028298500009910122000000
1306110031194000011560002070000
1306110010764000012800002070000
1306110036250000013000002070000
1306110008500000013030002070000
1306110008600000013450002070000
