1103210007123500001930102000000
1103210004427500002950013003000
1103210004090500003580012003000
1103210000271500004290092000000
1103210000272000004290102000000
1103210000271500004290112000000
1103210000272000004290122000000
1103210000272000004290132000000
1103210000272000004290142000000
1103210000272000004290152000000
1103210000272000004290162000000
1103210002808000004680322000000
1103210000869000008610002007000
1103210000951000008640002007000
1103210038515000008670002004000
