1306130006054000000002289000000
1306130002700000000003439000000
1306130020659500000003899000000
1306130030000000000004729000000
1306130002127000011230013010000
1306130010000000012920002070000
1306130011500000012960002070000
