1012020000986500001800022003000
1012020004819500002830012007000
1012020001307500004310292000000
1012020006944000004700202000000
1012020006944000004700212000000
1012020001214500007660052000000
1012020003038000007670042000000
