1207110002700000000001349000000
1207110002700000000001449000000
1207110002833500008320013002000
1207110000893000008990022002000
1207110002411000009050022002000
1207110001000000010290002007000
1207110000925000010340002007000
1207110001000000010560002007000
1207110001100000010650002007000
1207110001600000010670002007000
1207110006100000010740002007000
1207110001100000010800002007000
1207110002300000010980012007000
1207110002950000011020012007000
1207110003700000011040012007000
1207110005700000011050012007000
1207110002950000011070012007000
1207110002950000011100012007000
1207110002950000011110012007000
