1011150011660500000840232004000
1011150001555500001520022003000
1011150001271000002380032000000
1011150001397500002400013003000
1011150002479000003660022000000
1011150006630500003900133000000
1011150002914000003930042000000
1011150001266500004280042000000
1011150002999500005100032003000
1011150000250500005650222000000
1011150000579500005840052000000
1011150000310500008160012002000
