1206180030000000000001489000000
1206180005000000000001499000000
1206180005000000000001509000000
1206180015000000000001519000000
1206180040000000000001529000000
1206180014008000010240002004000
1206180001004000010270002007000
