1503190001826000000012269000000
1503190006787500000013219000000
1503190006787500000013229000000
1503190006787500000013239000000
1503190002515000000014499000000
1503190010000000000014809000000
1503190010539500015490002070000
