1403130129474000000006779000000
1403130005082000000006949000000
1403130017175000000007389000000
1403130027738000004100032000000
1403130010976500004860212000000
1403130190628000007160042050000
1403130015306000008120023050000
1403130036769000009530032050000
1403130036354500011210022010000
1403130010900000013740002070000
